Data Wrangling in R
…
* Replacing values using the statement `case_when()`. 

--

```r
titanic %>%
  mutate(survived = 
           case_when(survived == 1 ~ "yes", 
                     survived == 0 ~ "no")
         )
```

```
## # A tibble: 1,309 x 11
##    pclass survived name_of_passeng~ sex_of_passenger age_of_passenger sibsp
##     <dbl> <chr>    <chr>            <chr>            <chr>            <dbl>
##  1      1 yes      Allen, Miss. El~ female           29                   0
##  2      1 yes      Allison, Master~ male             0.9167               1
##  3      1 no       Allison, Miss. ~ female           2                    1
##  4      1 no       Allison, Mr. Hu~ male             30                   1
##  5      1 no       Allison, Mrs. H~ female           25                   1
##  6      1 yes      Anderson, Mr. H~ male             48                   0
##  7      1 yes      Andrews, Miss. ~ female           63                   1
##  8      1 no       Andrews, Mr. Th~ male             NULL                 0
##  9      1 yes      Appleton, Mrs. ~ female           NULL                 2
## 10      1 no       Artagaveytia, M~ male             NULL                 0
## # ... with 1,299 more rows, and 5 more variables: parch <dbl>, ticket <chr>,
## #   fare <dbl>, cabin <chr>, embarked <chr>
```
…
---
# Replacing values

* We may use `case_when()` to create a `quality_check` column.

```r
titanic %>%
  mutate(quality_check = case_when(fare > 100 ~ "outlier",
                                   fare <= 100 ~ "keep",
*                                   TRUE ~ "missing")
        )
```

```
## # A tibble: 1,309 x 12
##    pclass survived name_of_passeng~ sex_of_passenger age_of_passenger sibsp
##     <dbl>    <dbl> <chr>            <chr>            <chr>            <dbl>
##  1      1        1 Allen, Miss. El~ female           29                   0
##  2      1        1 Allison, Master~ male             0.9167               1
##  3      1        0 Allison, Miss. ~ female           2                    1
##  4      1        0 Allison, Mr. Hu~ male             30                   1
##  5      1        0 Allison, Mrs. H~ female           25                   1
##  6      1        1 Anderson, Mr. H~ male             48                   0
##  7      1        1 Andrews, Miss. ~ female           63                   1
##  8      1        0 Andrews, Mr. Th~ male             NULL                 0
##  9      1        1 Appleton, Mrs. ~ female           NULL                 2
## 10      1        0 Artagaveytia, M~ male             NULL                 0
## # ... with 1,299 more rows, and 6 more variables: parch <dbl>, ticket <chr>,
## #   fare <dbl>, cabin <chr>, embarked <chr>, quality_check <chr>
```
…
