Data Wrangling with R Exercises
…
Looking at the output of summary what is the maximum and minimum fare?

2.7 Replacing values

Replacing values using the statement case_when().

titanic %>%
  mutate(survived = 
           case_when(survived == 1 ~ "yes", 
                     survived == 0 ~ "no")
         ) 

## # A tibble: 1,309 x 11
##    pclass survived name_of_passeng~ sex_of_passenger age_of_passenger sibsp
##     <dbl> <chr>    <chr>            <chr>            <chr>            <dbl>
##  1      1 yes      Allen, Miss. El~ female           29                   0
##  2      1 yes      Allison, Master~ male             0.9167               1
##  3      1 no       Allison, Miss. ~ female           2                    1
##  4      1 no       Allison, Mr. Hu~ male             30                   1
##  5      1 no       Allison, Mrs. H~ female           25                   1
##  6      1 yes      Anderson, Mr. H~ male             48                   0
##  7      1 yes      Andrews, Miss. ~ female           63                   1
##  8      1 no       Andrews, Mr. Th~ male             NULL                 0
##  9      1 yes      Appleton, Mrs. ~ female           NULL                 2
## 10      1 no       Artagaveytia, M~ male             NULL                 0
## # ... with 1,299 more rows, and 5 more variables: parch <dbl>, ticket <chr>,
## #   fare <dbl>, cabin <chr>, embarked <chr>

case_when() is a two-sided formula where the left-hand side is a logical condition (yes or no) and the right-hand side is the value to assign when that test is TRUE, with the two sides separated by a ~.

We may use case_when() to create a quality_check column.

titanic %>%
  mutate(quality_check = case_when(fare > 100 ~ "outlier",
                                   fare <= 100 ~ "keep",
                                    TRUE ~ "missing") #<<
        ) %>%
  select(quality_check)

## # A tibble: 1,309 x 1
##    quality_check
##    <chr>        
##  1 outlier      
##  2 outlier      
##  3 outlier      
##  4 outlier      
##  5 outlier      
##  6 keep         
##  7 keep         
##  8 keep         
##  9 keep         
## 10 keep         
## # ... with 1,299 more rows
…
pivot_wider() widens data, increasing the number of columns and decreasing the number of rows.

The two functions are the inverse transformation of the other.

Returning to our billboard dataset. Here the data encoded in the column names is really a number (which week). In this case we want the names to become a variable called week, and the values to become a variable called rank, that is what was the ranking of a particular song in a given week.

billboard %>% 
  pivot_longer(
    cols = starts_with("wk"), 
    names_to = "week", 
    values_to = "rank"
  )

## # A tibble: 24,092 x 5
##    artist track                   date.entered week   rank
##    <chr>  <chr>                   <date>       <chr> <dbl>
##  1 2 Pac  Baby Don't Cry (Keep... 2000-02-26   wk1      87
##  2 2 Pac  Baby Don't Cry (Keep... 2000-02-26   wk2      82
##  3 2 Pac  Baby Don't Cry (Keep... 2000-02-26   wk3      72
##  4 2 Pac  Baby Don't Cry (Keep... 2000-02-26   wk4      77
##  5 2 Pac  Baby Don't Cry (Keep... 2000-02-26   wk5      87
##  6 2 Pac  Baby Don't Cry (Keep... 2000-02-26   wk6      94
##  7 2 Pac  Baby Don't Cry (Keep... 2000-02-26   wk7      99
##  8 2 Pac  Baby Don't Cry (Keep... 2000-02-26   wk8      NA
##  9 2 Pac  Baby Don't Cry (Keep... 2000-02-26   wk9      NA
## 10 2 Pac  Baby Don't Cry (Keep... 2000-02-26   wk10     NA
## # ... with 24,082 more rows

We can also add additional arguments. For instance, not every song stays in the charts for all 76 weeks, so the structure of the input data for the creation of unnecessary explicit NAs

(billboard_long <- billboard %>% 
                      pivot_longer(
                          cols = starts_with("wk"), 
                          names_to = "week", 
                          values_to = "rank",
                          values_drop_na = TRUE 
                      )
)

## # A tibble: 5,307 x 5
##    artist  track                   date.entered week   rank
##    <chr>   <chr>                   <date>       <chr> <dbl>
##  1 2 Pac   Baby Don't Cry (Keep... 2000-02-26   wk1      87
##  2 2 Pac   Baby Don't Cry (Keep... 2000-02-26   wk2      82
##  3 2 Pac   Baby Don't Cry (Keep... 2000-02-26   wk3      72
##  4 2 Pac   Baby Don't Cry (Keep... 2000-02-26   wk4      77
##  5 2 Pac   Baby Don't Cry (Keep... 2000-02-26   wk5      87
##  6 2 Pac   Baby Don't Cry (Keep... 2000-02-26   wk6      94
##  7 2 Pac   Baby Don't Cry (Keep... 2000-02-26   wk7      99
##  8 2Ge+her The Hardest Part Of ... 2000-09-02   wk1      91
##  9 2Ge+her The Hardest Part Of ... 2000-09-02   wk2      87
## 10 2Ge+her The Hardest Part Of ... 2000-09-02   wk3      92
## # ... with 5,297 more rows

billboard %>% 
  pivot_longer(
      cols = starts_with("wk"), 
      names_to = "week", 
      names_prefix = "wk", 
      names_transform = list(week = as.integer), 
      values_to = "rank",
      values_drop_na = TRUE,
  )

## # A tibble: 5,307 x 5
##    artist  track                   date.entered  week  rank
##    <chr>   <chr>                   <date>       <int> <dbl>
##  1 2 Pac   Baby Don't Cry (Keep... 2000-02-26       1    87
##  2 2 Pac   Baby Don't Cry (Keep... 2000-02-26       2    82
##  3 2 Pac   Baby Don't Cry (Keep... 2000-02-26       3    72
##  4 2 Pac   Baby Don't Cry (Keep... 2000-02-26       4    77
##  5 2 Pac   Baby Don't Cry (Keep... 2000-02-26       5    87
##  6 2 Pac   Baby Don't Cry (Keep... 2000-02-26       6    94
##  7 2 Pac   Baby Don't Cry (Keep... 2000-02-26       7    99
##  8 2Ge+her The Hardest Part Of ... 2000-09-02       1    91
##  9 2Ge+her The Hardest Part Of ... 2000-09-02       2    87
## 10 2Ge+her The Hardest Part Of ... 2000-09-02       3    92
## # ... with 5,297 more rows

We may also want week to appear as an integer instead of as a character.

3.3.2 Reshaping: transforming to pivot_shorter

Now if we want to transform the data back we can do this using pivot_shorter

billboard_long %>%
  pivot_wider(
    names_from = week,
    values_from = rank
    )

## # A tibble: 317 x 68
##    artist track date.entered   wk1   wk2   wk3   wk4   wk5   wk6   wk7   wk8
##    <chr>  <chr> <date>       <dbl> <dbl> <dbl> <dbl> <dbl> <dbl> <dbl> <dbl>
##  1 2 Pac  Baby~ 2000-02-26      87    82    72    77    87    94    99    NA
##  2 2Ge+h~ The ~ 2000-09-02      91    87    92    NA    NA    NA    NA    NA
##  3 3 Doo~ Kryp~ 2000-04-08      81    70    68    67    66    57    54    53
##  4 3 Doo~ Loser 2000-10-21      76    76    72    69    67    65    55    59
##  5 504 B~ Wobb~ 2000-04-15      57    34    25    17    17    31    36    49
##  6 98^0   Give~ 2000-08-19      51    39    34    26    26    19     2     2
##  7 A*Tee~ Danc~ 2000-07-08      97    97    96    95   100    NA    NA    NA
##  8 Aaliy~ I Do~ 2000-01-29      84    62    51    41    38    35    35    38
##  9 Aaliy~ Try ~ 2000-03-18      59    53    38    28    21    18    16    14
## 10 Adams~ Open~ 2000-08-26      76    76    74    69    68    67    61    58
## # ... with 307 more rows, and 57 more variables: wk9 <dbl>, wk10 <dbl>,
## #   wk11 <dbl>, wk12 <dbl>, wk13 <dbl>, wk14 <dbl>, wk15 <dbl>, wk16 <dbl>,
## #   wk17 <dbl>, wk18 <dbl>, wk19 <dbl>, wk20 <dbl>, wk21 <dbl>, wk22 <dbl>,
## #   wk23 <dbl>, wk24 <dbl>, wk25 <dbl>, wk26 <dbl>, wk27 <dbl>, wk28 <dbl>,
## #   wk29 <dbl>, wk30 <dbl>, wk31 <dbl>, wk32 <dbl>, wk33 <dbl>, wk34 <dbl>,
## #   wk35 <dbl>, wk36 <dbl>, wk37 <dbl>, wk38 <dbl>, wk39 <dbl>, wk40 <dbl>,
## #   wk41 <dbl>, wk42 <dbl>, wk43 <dbl>, wk44 <dbl>, wk45 <dbl>, wk46 <dbl>,
## #   wk47 <dbl>, wk48 <dbl>, wk49 <dbl>, wk50 <dbl>, wk51 <dbl>, wk52 <dbl>,
## #   wk53 <dbl>, wk54 <dbl>, wk55 <dbl>, wk56 <dbl>, wk57 <dbl>, wk58 <dbl>,
…
To choose the right function, you’ll want to think about, are we making our data “longer” or “wider”?

For the other aspects, we have a clue in the text.

We wish to reorganise the data so that the names of the columns, the income categories, are contained in a single variable called “income”. We want to make it so that the values, the number of people in each category, are contained in a single column called “count”.

3.4.2 Arranging data

To order the rows by the values of a column (low to high)

titanic %>%
  arrange(fare)

## # A tibble: 1,309 x 11
##    pclass survived name_of_passeng~ sex_of_passenger age_of_passenger sibsp
##     <dbl>    <dbl> <chr>            <chr>            <chr>            <dbl>
##  1      1        0 "Andrews, Mr. T~ male             NULL                 0
##  2      1        0 "Chisholm, Mr. ~ male             <NA>                 0
##  3      1        0 "Fry, Mr. Richa~ male             <NA>                 0
##  4      1        0 "Harrison, Mr. ~ male             40                   0
##  5      1        1 "Ismay, Mr. Jos~ male             49                   0
##  6      1        0 "Parr, Mr. Will~ male             <NA>                 0
##  7      1        0 "Reuchlin, Jonk~ male             38                   0
##  8      2        0 "Campbell, Mr. ~ male             <NA>                 0
##  9      2        0 "Cunningham, Mr~ male             <NA>                 0
## 10      2        0 "Frost, Mr. Ant~ male             <NA>                 0
## # ... with 1,299 more rows, and 5 more variables: parch <dbl>, ticket <chr>,
## #   fare <dbl>, cabin <chr>, embarked <chr>

To order the rows by the values of a column (high to low).

titanic %>%
  arrange(desc(fare))

## # A tibble: 1,309 x 11
##    pclass survived name_of_passeng~ sex_of_passenger age_of_passenger sibsp
##     <dbl>    <dbl> <chr>            <chr>            <chr>            <dbl>
##  1      1        1 Cardeza, Mr. Th~ male             36                   0
##  2      1        1 Cardeza, Mrs. J~ female           58                   0
##  3      1        1 Lesurer, Mr. Gu~ male             35                   0
##  4      1        1 Ward, Miss. Anna female           35                   0
##  5      1        1 Fortune, Miss. ~ female           24                   3
##  6      1        1 Fortune, Miss. ~ female           28                   3
##  7      1        1 Fortune, Miss. ~ female           23                   3
##  8      1        0 Fortune, Mr. Ch~ male             19                   3
##  9      1        0 Fortune, Mr. Ma~ male             64                   1
## 10      1        1 Fortune, Mrs. M~ female           60                   1
## # ... with 1,299 more rows, and 5 more variables: parch <dbl>, ticket <chr>,
## #   fare <dbl>, cabin <chr>, embarked <chr>
…
3.4.3 Separate one column into several

titanic2 <- titanic %>%
              separate(
                col = name_of_passenger, 
                into = c("last_name", "first_names"), 
                sep = ","
              )

3.4.4 Unite several columns into one

titanic2 %>%
  unite(col = "name_of_passenger", "last_name", "first_names",  sep = ",")

## # A tibble: 1,309 x 11
##    pclass survived name_of_passeng~ sex_of_passenger age_of_passenger sibsp
##     <dbl>    <dbl> <chr>            <chr>            <chr>            <dbl>
##  1      1        1 Allen, Miss. El~ female           29                   0
##  2      1        1 Allison, Master~ male             0.9167               1
##  3      1        0 Allison, Miss. ~ female           2                    1
##  4      1        0 Allison, Mr. Hu~ male             30                   1
##  5      1        0 Allison, Mrs. H~ female           25                   1
##  6      1        1 Anderson, Mr. H~ male             48                   0
##  7      1        1 Andrews, Miss. ~ female           63                   1
##  8      1        0 Andrews, Mr. Th~ male             NULL                 0
##  9      1        1 Appleton, Mrs. ~ female           NULL                 2
## 10      1        0 Artagaveytia, M~ male             NULL                 0
## # ... with 1,299 more rows, and 5 more variables: parch <dbl>, ticket <chr>,
## #   fare <dbl>, cabin <chr>, embarked <chr>
…
